127.0.0.1 - - [26/Jan/2017:12:59:57 +0100] "GET / HTTP/1.1" 404 951
0:0:0:0:0:0:0:1 - - [26/Jan/2017:12:59:57 +0100] "GET /EmailWebApplicationBrowser/ HTTP/1.1" 200 1785
0:0:0:0:0:0:0:1 - - [26/Jan/2017:12:59:57 +0100] "GET /EmailWebApplicationBrowser/js/jquery-1.7.1.min.js HTTP/1.1" 304 -
0:0:0:0:0:0:0:1 - - [26/Jan/2017:12:59:57 +0100] "GET /EmailWebApplicationBrowser/js/entrance.js HTTP/1.1" 200 2721
0:0:0:0:0:0:0:1 - - [26/Jan/2017:13:00:02 +0100] "GET /EmailWebApplicationBrowser/ HTTP/1.1" 200 1785
0:0:0:0:0:0:0:1 - - [26/Jan/2017:13:00:02 +0100] "GET /EmailWebApplicationBrowser/js/jquery-1.7.1.min.js HTTP/1.1" 200 93868
0:0:0:0:0:0:0:1 - - [26/Jan/2017:13:00:02 +0100] "GET /EmailWebApplicationBrowser/js/entrance.js HTTP/1.1" 200 2721
0:0:0:0:0:0:0:1 - - [26/Jan/2017:13:06:26 +0100] "GET /EmailWebApplicationBrowser/ HTTP/1.1" 200 1802
0:0:0:0:0:0:0:1 - - [26/Jan/2017:13:06:26 +0100] "GET /EmailWebApplicationBrowser/js/jquery-1.7.1.min.js HTTP/1.1" 200 93868
0:0:0:0:0:0:0:1 - - [26/Jan/2017:13:06:26 +0100] "GET /EmailWebApplicationBrowser/js/entrance.js HTTP/1.1" 200 3229
0:0:0:0:0:0:0:1 - - [26/Jan/2017:13:06:33 +0100] "POST /EmailWebApplicationBrowser/rest/user/login HTTP/1.1" 200 16
0:0:0:0:0:0:0:1 - - [26/Jan/2017:13:10:14 +0100] "GET /EmailWebApplicationBrowser/ HTTP/1.1" 200 1868
0:0:0:0:0:0:0:1 - - [26/Jan/2017:13:10:15 +0100] "GET /EmailWebApplicationBrowser/js/jquery-1.7.1.min.js HTTP/1.1" 200 93868
0:0:0:0:0:0:0:1 - - [26/Jan/2017:13:10:15 +0100] "GET /EmailWebApplicationBrowser/js/entrance.js HTTP/1.1" 200 3316
0:0:0:0:0:0:0:1 - - [26/Jan/2017:13:10:20 +0100] "POST /EmailWebApplicationBrowser/rest/user/login HTTP/1.1" 200 16
0:0:0:0:0:0:0:1 - - [26/Jan/2017:13:23:51 +0100] "GET /EmailWebApplicationBrowser/ HTTP/1.1" 200 1868
0:0:0:0:0:0:0:1 - - [26/Jan/2017:13:23:51 +0100] "GET /EmailWebApplicationBrowser/js/jquery-1.7.1.min.js HTTP/1.1" 200 93868
0:0:0:0:0:0:0:1 - - [26/Jan/2017:13:23:51 +0100] "GET /EmailWebApplicationBrowser/js/entrance.js HTTP/1.1" 200 3317
0:0:0:0:0:0:0:1 - - [26/Jan/2017:13:23:55 +0100] "POST /EmailWebApplicationBrowser/rest/user/login HTTP/1.1" 200 16
127.0.0.1 - - [26/Jan/2017:13:40:34 +0100] "GET / HTTP/1.1" 404 951
0:0:0:0:0:0:0:1 - - [26/Jan/2017:13:40:34 +0100] "GET /EmailWebApplicationBrowser/ HTTP/1.1" 200 1507
0:0:0:0:0:0:0:1 - - [26/Jan/2017:13:40:34 +0100] "GET /EmailWebApplicationBrowser/js/entrance.js HTTP/1.1" 200 3309
0:0:0:0:0:0:0:1 - - [26/Jan/2017:13:40:56 +0100] "GET /EmailWebApplicationBrowser/ HTTP/1.1" 200 1507
0:0:0:0:0:0:0:1 - - [26/Jan/2017:13:40:56 +0100] "GET /EmailWebApplicationBrowser/js/jquery-1.7.1.min.js HTTP/1.1" 200 93868
0:0:0:0:0:0:0:1 - - [26/Jan/2017:13:40:56 +0100] "GET /EmailWebApplicationBrowser/js/entrance.js HTTP/1.1" 200 3309
0:0:0:0:0:0:0:1 - - [26/Jan/2017:13:41:00 +0100] "GET /EmailWebApplicationBrowser/?username=jelena HTTP/1.1" 200 1507
0:0:0:0:0:0:0:1 - - [26/Jan/2017:13:41:00 +0100] "GET /EmailWebApplicationBrowser/js/jquery-1.7.1.min.js HTTP/1.1" 200 93868
0:0:0:0:0:0:0:1 - - [26/Jan/2017:13:41:00 +0100] "GET /EmailWebApplicationBrowser/js/entrance.js HTTP/1.1" 200 3309
0:0:0:0:0:0:0:1 - - [26/Jan/2017:13:41:55 +0100] "GET /EmailWebApplicationBrowser/?username=jelena HTTP/1.1" 200 1507
0:0:0:0:0:0:0:1 - - [26/Jan/2017:13:41:55 +0100] "GET /EmailWebApplicationBrowser/js/jquery-1.7.1.min.js HTTP/1.1" 200 93868
0:0:0:0:0:0:0:1 - - [26/Jan/2017:13:41:55 +0100] "GET /EmailWebApplicationBrowser/js/entrance.js HTTP/1.1" 200 3307
0:0:0:0:0:0:0:1 - - [26/Jan/2017:13:41:58 +0100] "GET /EmailWebApplicationBrowser/ HTTP/1.1" 200 1507
0:0:0:0:0:0:0:1 - - [26/Jan/2017:13:41:58 +0100] "GET /EmailWebApplicationBrowser/js/jquery-1.7.1.min.js HTTP/1.1" 200 93868
0:0:0:0:0:0:0:1 - - [26/Jan/2017:13:41:58 +0100] "GET /EmailWebApplicationBrowser/js/entrance.js HTTP/1.1" 200 3307
0:0:0:0:0:0:0:1 - - [26/Jan/2017:13:42:08 +0100] "GET /EmailWebApplicationBrowser/?username=jelena HTTP/1.1" 200 1507
0:0:0:0:0:0:0:1 - - [26/Jan/2017:13:42:08 +0100] "GET /EmailWebApplicationBrowser/js/jquery-1.7.1.min.js HTTP/1.1" 200 93868
0:0:0:0:0:0:0:1 - - [26/Jan/2017:13:42:08 +0100] "GET /EmailWebApplicationBrowser/js/entrance.js HTTP/1.1" 200 3307
127.0.0.1 - - [26/Jan/2017:13:47:49 +0100] "GET / HTTP/1.1" 404 951
0:0:0:0:0:0:0:1 - - [26/Jan/2017:13:47:49 +0100] "GET /EmailWebApplicationBrowser/ HTTP/1.1" 304 -
0:0:0:0:0:0:0:1 - - [26/Jan/2017:13:47:49 +0100] "GET /EmailWebApplicationBrowser/js/entrance.js HTTP/1.1" 200 3288
0:0:0:0:0:0:0:1 - - [26/Jan/2017:13:48:01 +0100] "GET /EmailWebApplicationBrowser/ HTTP/1.1" 200 1507
0:0:0:0:0:0:0:1 - - [26/Jan/2017:13:48:01 +0100] "GET /EmailWebApplicationBrowser/js/jquery-1.7.1.min.js HTTP/1.1" 200 93868
0:0:0:0:0:0:0:1 - - [26/Jan/2017:13:48:01 +0100] "GET /EmailWebApplicationBrowser/js/entrance.js HTTP/1.1" 200 3288
0:0:0:0:0:0:0:1 - - [26/Jan/2017:13:48:13 +0100] "GET /EmailWebApplicationBrowser/?username=jelena HTTP/1.1" 200 1507
0:0:0:0:0:0:0:1 - - [26/Jan/2017:13:48:13 +0100] "GET /EmailWebApplicationBrowser/js/entrance.js HTTP/1.1" 200 3288
0:0:0:0:0:0:0:1 - - [26/Jan/2017:13:48:13 +0100] "GET /EmailWebApplicationBrowser/js/jquery-1.7.1.min.js HTTP/1.1" 200 93868
0:0:0:0:0:0:0:1 - - [26/Jan/2017:13:49:06 +0100] "GET /EmailWebApplicationBrowser/ HTTP/1.1" 200 1507
0:0:0:0:0:0:0:1 - - [26/Jan/2017:13:49:06 +0100] "GET /EmailWebApplicationBrowser/js/jquery-1.7.1.min.js HTTP/1.1" 200 93868
0:0:0:0:0:0:0:1 - - [26/Jan/2017:13:49:06 +0100] "GET /EmailWebApplicationBrowser/js/entrance.js HTTP/1.1" 200 3286
0:0:0:0:0:0:0:1 - - [26/Jan/2017:13:49:13 +0100] "GET /EmailWebApplicationBrowser/?username=jelena HTTP/1.1" 200 1507
0:0:0:0:0:0:0:1 - - [26/Jan/2017:13:49:13 +0100] "GET /EmailWebApplicationBrowser/js/jquery-1.7.1.min.js HTTP/1.1" 200 93868
0:0:0:0:0:0:0:1 - - [26/Jan/2017:13:49:13 +0100] "GET /EmailWebApplicationBrowser/js/entrance.js HTTP/1.1" 200 3286
0:0:0:0:0:0:0:1 - - [26/Jan/2017:13:50:02 +0100] "GET /EmailWebApplicationBrowser/ HTTP/1.1" 200 1507
0:0:0:0:0:0:0:1 - - [26/Jan/2017:13:50:02 +0100] "GET /EmailWebApplicationBrowser/js/jquery-1.7.1.min.js HTTP/1.1" 200 93868
0:0:0:0:0:0:0:1 - - [26/Jan/2017:13:50:02 +0100] "GET /EmailWebApplicationBrowser/js/entrance.js HTTP/1.1" 200 3288
0:0:0:0:0:0:0:1 - - [26/Jan/2017:13:50:08 +0100] "GET /EmailWebApplicationBrowser/?username=jelena HTTP/1.1" 200 1507
0:0:0:0:0:0:0:1 - - [26/Jan/2017:13:50:08 +0100] "GET /EmailWebApplicationBrowser/js/jquery-1.7.1.min.js HTTP/1.1" 200 93868
0:0:0:0:0:0:0:1 - - [26/Jan/2017:13:50:08 +0100] "GET /EmailWebApplicationBrowser/js/entrance.js HTTP/1.1" 200 3288
127.0.0.1 - - [26/Jan/2017:13:56:26 +0100] "GET / HTTP/1.1" 404 951
0:0:0:0:0:0:0:1 - - [26/Jan/2017:13:56:40 +0100] "GET /EmailWebApplicationBrowser/ HTTP/1.1" 200 1507
0:0:0:0:0:0:0:1 - - [26/Jan/2017:13:56:40 +0100] "GET /EmailWebApplicationBrowser/js/jquery-1.7.1.min.js HTTP/1.1" 200 93868
0:0:0:0:0:0:0:1 - - [26/Jan/2017:13:56:40 +0100] "GET /EmailWebApplicationBrowser/js/entrance.js HTTP/1.1" 200 3293
0:0:0:0:0:0:0:1 - - [26/Jan/2017:13:56:46 +0100] "GET /EmailWebApplicationBrowser/?username=jelena HTTP/1.1" 200 1507
0:0:0:0:0:0:0:1 - - [26/Jan/2017:13:56:46 +0100] "GET /EmailWebApplicationBrowser/js/jquery-1.7.1.min.js HTTP/1.1" 200 93868
0:0:0:0:0:0:0:1 - - [26/Jan/2017:13:56:46 +0100] "GET /EmailWebApplicationBrowser/js/entrance.js HTTP/1.1" 200 3293
127.0.0.1 - - [26/Jan/2017:13:58:49 +0100] "GET / HTTP/1.1" 404 951
0:0:0:0:0:0:0:1 - - [26/Jan/2017:13:58:50 +0100] "GET /EmailWebApplicationBrowser/ HTTP/1.1" 304 -
0:0:0:0:0:0:0:1 - - [26/Jan/2017:13:58:50 +0100] "GET /EmailWebApplicationBrowser/js/entrance.js HTTP/1.1" 200 3293
0:0:0:0:0:0:0:1 - - [26/Jan/2017:13:58:53 +0100] "GET /EmailWebApplicationBrowser/ HTTP/1.1" 200 1507
0:0:0:0:0:0:0:1 - - [26/Jan/2017:13:58:53 +0100] "GET /EmailWebApplicationBrowser/js/jquery-1.7.1.min.js HTTP/1.1" 200 93868
0:0:0:0:0:0:0:1 - - [26/Jan/2017:13:58:53 +0100] "GET /EmailWebApplicationBrowser/js/entrance.js HTTP/1.1" 200 3293
0:0:0:0:0:0:0:1 - - [26/Jan/2017:13:58:57 +0100] "GET /EmailWebApplicationBrowser/?username=jelena HTTP/1.1" 200 1507
0:0:0:0:0:0:0:1 - - [26/Jan/2017:13:58:57 +0100] "GET /EmailWebApplicationBrowser/js/entrance.js HTTP/1.1" 200 3293
0:0:0:0:0:0:0:1 - - [26/Jan/2017:13:58:57 +0100] "GET /EmailWebApplicationBrowser/js/jquery-1.7.1.min.js HTTP/1.1" 200 93868
127.0.0.1 - - [26/Jan/2017:14:00:53 +0100] "GET / HTTP/1.1" 404 951
0:0:0:0:0:0:0:1 - - [26/Jan/2017:14:00:57 +0100] "GET /EmailWebApplicationBrowser/ HTTP/1.1" 200 1507
0:0:0:0:0:0:0:1 - - [26/Jan/2017:14:00:57 +0100] "GET /EmailWebApplicationBrowser/js/entrance.js HTTP/1.1" 200 3293
0:0:0:0:0:0:0:1 - - [26/Jan/2017:14:00:57 +0100] "GET /EmailWebApplicationBrowser/js/jquery-1.7.1.min.js HTTP/1.1" 200 93868
0:0:0:0:0:0:0:1 - - [26/Jan/2017:14:01:02 +0100] "GET /EmailWebApplicationBrowser/?username=jelena HTTP/1.1" 200 1507
0:0:0:0:0:0:0:1 - - [26/Jan/2017:14:01:02 +0100] "GET /EmailWebApplicationBrowser/js/jquery-1.7.1.min.js HTTP/1.1" 200 93868
0:0:0:0:0:0:0:1 - - [26/Jan/2017:14:01:02 +0100] "GET /EmailWebApplicationBrowser/js/entrance.js HTTP/1.1" 200 3293
127.0.0.1 - - [26/Jan/2017:14:03:34 +0100] "GET / HTTP/1.1" 404 951
0:0:0:0:0:0:0:1 - - [26/Jan/2017:14:03:34 +0100] "GET /EmailWebApplicationBrowser/ HTTP/1.1" 200 1868
0:0:0:0:0:0:0:1 - - [26/Jan/2017:14:03:35 +0100] "GET /EmailWebApplicationBrowser/js/entrance.js HTTP/1.1" 200 3317
0:0:0:0:0:0:0:1 - - [26/Jan/2017:14:03:42 +0100] "GET /EmailWebApplicationBrowser/ HTTP/1.1" 200 1868
0:0:0:0:0:0:0:1 - - [26/Jan/2017:14:03:42 +0100] "GET /EmailWebApplicationBrowser/js/jquery-1.7.1.min.js HTTP/1.1" 200 93868
0:0:0:0:0:0:0:1 - - [26/Jan/2017:14:03:42 +0100] "GET /EmailWebApplicationBrowser/js/entrance.js HTTP/1.1" 200 3317
0:0:0:0:0:0:0:1 - - [26/Jan/2017:14:03:54 +0100] "POST /EmailWebApplicationBrowser/rest/user/login HTTP/1.1" 200 16
0:0:0:0:0:0:0:1 - - [26/Jan/2017:14:04:06 +0100] "GET /EmailWebApplicationBrowser/?username=jelena HTTP/1.1" 200 1868
0:0:0:0:0:0:0:1 - - [26/Jan/2017:14:04:09 +0100] "GET /EmailWebApplicationBrowser/js/jquery-1.7.1.min.js HTTP/1.1" 200 93868
0:0:0:0:0:0:0:1 - - [26/Jan/2017:14:04:09 +0100] "GET /EmailWebApplicationBrowser/js/entrance.js HTTP/1.1" 200 3317
0:0:0:0:0:0:0:1 - - [26/Jan/2017:14:04:18 +0100] "GET /EmailWebApplicationBrowser/ HTTP/1.1" 200 1868
0:0:0:0:0:0:0:1 - - [26/Jan/2017:14:04:18 +0100] "GET /EmailWebApplicationBrowser/js/jquery-1.7.1.min.js HTTP/1.1" 200 93868
0:0:0:0:0:0:0:1 - - [26/Jan/2017:14:04:18 +0100] "GET /EmailWebApplicationBrowser/js/entrance.js HTTP/1.1" 200 3317
127.0.0.1 - - [26/Jan/2017:14:06:01 +0100] "GET / HTTP/1.1" 404 951
0:0:0:0:0:0:0:1 - - [26/Jan/2017:14:06:02 +0100] "GET /EmailWebApplicationBrowser/ HTTP/1.1" 200 1868
0:0:0:0:0:0:0:1 - - [26/Jan/2017:14:06:02 +0100] "GET /EmailWebApplicationBrowser/js/entrance.js HTTP/1.1" 200 3388
0:0:0:0:0:0:0:1 - - [26/Jan/2017:14:06:08 +0100] "GET /EmailWebApplicationBrowser/ HTTP/1.1" 200 1868
0:0:0:0:0:0:0:1 - - [26/Jan/2017:14:06:08 +0100] "GET /EmailWebApplicationBrowser/js/jquery-1.7.1.min.js HTTP/1.1" 200 93868
0:0:0:0:0:0:0:1 - - [26/Jan/2017:14:06:08 +0100] "GET /EmailWebApplicationBrowser/js/entrance.js HTTP/1.1" 200 3388
0:0:0:0:0:0:0:1 - - [26/Jan/2017:14:06:12 +0100] "POST /EmailWebApplicationBrowser/rest/user/login HTTP/1.1" 200 111
0:0:0:0:0:0:0:1 - - [26/Jan/2017:14:06:56 +0100] "GET /EmailWebApplicationBrowser/ HTTP/1.1" 200 1868
0:0:0:0:0:0:0:1 - - [26/Jan/2017:14:06:56 +0100] "GET /EmailWebApplicationBrowser/js/jquery-1.7.1.min.js HTTP/1.1" 200 93868
0:0:0:0:0:0:0:1 - - [26/Jan/2017:14:06:56 +0100] "GET /EmailWebApplicationBrowser/js/entrance.js HTTP/1.1" 200 3388
0:0:0:0:0:0:0:1 - - [26/Jan/2017:14:07:00 +0100] "POST /EmailWebApplicationBrowser/rest/user/login HTTP/1.1" 200 111
0:0:0:0:0:0:0:1 - - [26/Jan/2017:14:07:43 +0100] "GET /EmailWebApplicationBrowser/ HTTP/1.1" 200 1881
0:0:0:0:0:0:0:1 - - [26/Jan/2017:14:07:43 +0100] "GET /EmailWebApplicationBrowser/js/jquery-1.7.1.min.js HTTP/1.1" 200 93868
0:0:0:0:0:0:0:1 - - [26/Jan/2017:14:07:43 +0100] "GET /EmailWebApplicationBrowser/js/entrance.js HTTP/1.1" 200 3388
0:0:0:0:0:0:0:1 - - [26/Jan/2017:14:07:47 +0100] "POST /EmailWebApplicationBrowser/rest/user/login HTTP/1.1" 200 111
127.0.0.1 - - [26/Jan/2017:14:08:31 +0100] "GET / HTTP/1.1" 404 951
0:0:0:0:0:0:0:1 - - [26/Jan/2017:14:08:31 +0100] "GET /EmailWebApplicationBrowser/ HTTP/1.1" 200 1881
0:0:0:0:0:0:0:1 - - [26/Jan/2017:14:08:32 +0100] "GET /EmailWebApplicationBrowser/js/entrance.js HTTP/1.1" 200 3392
0:0:0:0:0:0:0:1 - - [26/Jan/2017:14:08:38 +0100] "GET /EmailWebApplicationBrowser/ HTTP/1.1" 200 1881
0:0:0:0:0:0:0:1 - - [26/Jan/2017:14:08:38 +0100] "GET /EmailWebApplicationBrowser/js/jquery-1.7.1.min.js HTTP/1.1" 200 93868
0:0:0:0:0:0:0:1 - - [26/Jan/2017:14:08:38 +0100] "GET /EmailWebApplicationBrowser/js/entrance.js HTTP/1.1" 200 3392
0:0:0:0:0:0:0:1 - - [26/Jan/2017:14:08:42 +0100] "POST /EmailWebApplicationBrowser/rest/user/login HTTP/1.1" 200 111
0:0:0:0:0:0:0:1 - - [26/Jan/2017:14:13:19 +0100] "GET /EmailWebApplicationBrowser/ HTTP/1.1" 200 1881
0:0:0:0:0:0:0:1 - - [26/Jan/2017:14:13:19 +0100] "GET /EmailWebApplicationBrowser/js/jquery-1.7.1.min.js HTTP/1.1" 200 93868
0:0:0:0:0:0:0:1 - - [26/Jan/2017:14:13:19 +0100] "GET /EmailWebApplicationBrowser/js/entrance.js HTTP/1.1" 200 3414
0:0:0:0:0:0:0:1 - - [26/Jan/2017:14:13:26 +0100] "POST /EmailWebApplicationBrowser/rest/user/login HTTP/1.1" 200 111
0:0:0:0:0:0:0:1 - - [26/Jan/2017:14:14:06 +0100] "GET /EmailWebApplicationBrowser/ HTTP/1.1" 200 1881
0:0:0:0:0:0:0:1 - - [26/Jan/2017:14:14:06 +0100] "GET /EmailWebApplicationBrowser/js/jquery-1.7.1.min.js HTTP/1.1" 200 93868
0:0:0:0:0:0:0:1 - - [26/Jan/2017:14:14:06 +0100] "GET /EmailWebApplicationBrowser/js/entrance.js HTTP/1.1" 200 3457
0:0:0:0:0:0:0:1 - - [26/Jan/2017:14:14:10 +0100] "POST /EmailWebApplicationBrowser/rest/user/login HTTP/1.1" 200 111
0:0:0:0:0:0:0:1 - - [26/Jan/2017:14:15:34 +0100] "GET /EmailWebApplicationBrowser/ HTTP/1.1" 200 1868
0:0:0:0:0:0:0:1 - - [26/Jan/2017:14:15:34 +0100] "GET /EmailWebApplicationBrowser/js/jquery-1.7.1.min.js HTTP/1.1" 200 93868
0:0:0:0:0:0:0:1 - - [26/Jan/2017:14:15:34 +0100] "GET /EmailWebApplicationBrowser/js/entrance.js HTTP/1.1" 200 3457
0:0:0:0:0:0:0:1 - - [26/Jan/2017:14:15:37 +0100] "POST /EmailWebApplicationBrowser/rest/user/login HTTP/1.1" 200 111
0:0:0:0:0:0:0:1 - - [26/Jan/2017:14:16:43 +0100] "GET /EmailWebApplicationBrowser/ HTTP/1.1" 200 1868
0:0:0:0:0:0:0:1 - - [26/Jan/2017:14:16:43 +0100] "GET /EmailWebApplicationBrowser/js/jquery-1.7.1.min.js HTTP/1.1" 200 93868
0:0:0:0:0:0:0:1 - - [26/Jan/2017:14:16:43 +0100] "GET /EmailWebApplicationBrowser/js/entrance.js HTTP/1.1" 200 3461
0:0:0:0:0:0:0:1 - - [26/Jan/2017:14:16:47 +0100] "POST /EmailWebApplicationBrowser/rest/user/login HTTP/1.1" 200 111
127.0.0.1 - - [26/Jan/2017:16:23:20 +0100] "GET / HTTP/1.1" 404 951
0:0:0:0:0:0:0:1 - - [26/Jan/2017:16:23:20 +0100] "GET /EmailWebApplicationBrowser/ HTTP/1.1" 200 1908
0:0:0:0:0:0:0:1 - - [26/Jan/2017:16:23:21 +0100] "GET /EmailWebApplicationBrowser/js/entrance.js HTTP/1.1" 200 4329
0:0:0:0:0:0:0:1 - - [26/Jan/2017:16:23:21 +0100] "GET /EmailWebApplicationBrowser/ HTTP/1.1" 200 1908
0:0:0:0:0:0:0:1 - - [26/Jan/2017:16:23:21 +0100] "GET /EmailWebApplicationBrowser/js/jquery-1.7.1.min.js HTTP/1.1" 200 93868
0:0:0:0:0:0:0:1 - - [26/Jan/2017:16:23:21 +0100] "GET /EmailWebApplicationBrowser/js/entrance.js HTTP/1.1" 200 4329
0:0:0:0:0:0:0:1 - - [26/Jan/2017:16:23:31 +0100] "POST /EmailWebApplicationBrowser/rest/user/login HTTP/1.1" 200 111
0:0:0:0:0:0:0:1 - - [26/Jan/2017:16:23:31 +0100] "POST /EmailWebApplicationBrowser/rest/user/receivedAll HTTP/1.1" 500 3259
127.0.0.1 - - [26/Jan/2017:16:28:22 +0100] "GET / HTTP/1.1" 404 951
0:0:0:0:0:0:0:1 - - [26/Jan/2017:16:28:23 +0100] "GET /EmailWebApplicationBrowser/ HTTP/1.1" 304 -
0:0:0:0:0:0:0:1 - - [26/Jan/2017:16:28:23 +0100] "GET /EmailWebApplicationBrowser/js/entrance.js HTTP/1.1" 304 -
0:0:0:0:0:0:0:1 - - [26/Jan/2017:16:28:24 +0100] "GET /EmailWebApplicationBrowser/ HTTP/1.1" 200 1908
0:0:0:0:0:0:0:1 - - [26/Jan/2017:16:28:24 +0100] "GET /EmailWebApplicationBrowser/js/jquery-1.7.1.min.js HTTP/1.1" 200 93868
0:0:0:0:0:0:0:1 - - [26/Jan/2017:16:28:24 +0100] "GET /EmailWebApplicationBrowser/js/entrance.js HTTP/1.1" 200 4329
0:0:0:0:0:0:0:1 - - [26/Jan/2017:16:28:30 +0100] "POST /EmailWebApplicationBrowser/rest/user/login HTTP/1.1" 200 111
0:0:0:0:0:0:0:1 - - [26/Jan/2017:16:28:30 +0100] "POST /EmailWebApplicationBrowser/rest/user/receivedAll HTTP/1.1" 204 -
0:0:0:0:0:0:0:1 - - [26/Jan/2017:16:29:25 +0100] "GET /EmailWebApplicationBrowser/ HTTP/1.1" 200 1908
0:0:0:0:0:0:0:1 - - [26/Jan/2017:16:29:25 +0100] "GET /EmailWebApplicationBrowser/js/jquery-1.7.1.min.js HTTP/1.1" 200 93868
0:0:0:0:0:0:0:1 - - [26/Jan/2017:16:29:25 +0100] "GET /EmailWebApplicationBrowser/js/entrance.js HTTP/1.1" 200 4329
127.0.0.1 - - [26/Jan/2017:16:39:55 +0100] "GET / HTTP/1.1" 404 951
0:0:0:0:0:0:0:1 - - [26/Jan/2017:16:39:55 +0100] "GET /EmailWebApplicationBrowser/ HTTP/1.1" 304 -
0:0:0:0:0:0:0:1 - - [26/Jan/2017:16:39:56 +0100] "GET /EmailWebApplicationBrowser/js/entrance.js HTTP/1.1" 304 -
0:0:0:0:0:0:0:1 - - [26/Jan/2017:16:40:04 +0100] "GET /EmailWebApplicationBrowser/ HTTP/1.1" 200 1908
0:0:0:0:0:0:0:1 - - [26/Jan/2017:16:40:05 +0100] "GET /EmailWebApplicationBrowser/js/jquery-1.7.1.min.js HTTP/1.1" 200 93868
0:0:0:0:0:0:0:1 - - [26/Jan/2017:16:40:05 +0100] "GET /EmailWebApplicationBrowser/js/entrance.js HTTP/1.1" 200 4329
0:0:0:0:0:0:0:1 - - [26/Jan/2017:16:40:10 +0100] "POST /EmailWebApplicationBrowser/rest/user/login HTTP/1.1" 200 111
0:0:0:0:0:0:0:1 - - [26/Jan/2017:16:40:10 +0100] "POST /EmailWebApplicationBrowser/rest/user/receivedAll HTTP/1.1" 204 -
127.0.0.1 - - [26/Jan/2017:16:42:30 +0100] "GET / HTTP/1.1" 404 951
0:0:0:0:0:0:0:1 - - [26/Jan/2017:16:42:31 +0100] "GET /EmailWebApplicationBrowser/ HTTP/1.1" 304 -
0:0:0:0:0:0:0:1 - - [26/Jan/2017:16:42:31 +0100] "GET /EmailWebApplicationBrowser/js/entrance.js HTTP/1.1" 304 -
0:0:0:0:0:0:0:1 - - [26/Jan/2017:16:42:36 +0100] "GET /EmailWebApplicationBrowser/ HTTP/1.1" 200 1908
0:0:0:0:0:0:0:1 - - [26/Jan/2017:16:42:36 +0100] "GET /EmailWebApplicationBrowser/js/jquery-1.7.1.min.js HTTP/1.1" 200 93868
0:0:0:0:0:0:0:1 - - [26/Jan/2017:16:42:36 +0100] "GET /EmailWebApplicationBrowser/js/entrance.js HTTP/1.1" 200 4329
0:0:0:0:0:0:0:1 - - [26/Jan/2017:16:42:41 +0100] "POST /EmailWebApplicationBrowser/rest/user/login HTTP/1.1" 200 111
0:0:0:0:0:0:0:1 - - [26/Jan/2017:16:42:41 +0100] "POST /EmailWebApplicationBrowser/rest/user/receivedAll HTTP/1.1" 204 -
127.0.0.1 - - [26/Jan/2017:16:46:00 +0100] "GET / HTTP/1.1" 404 951
0:0:0:0:0:0:0:1 - - [26/Jan/2017:16:46:01 +0100] "GET /EmailWebApplicationBrowser/ HTTP/1.1" 304 -
0:0:0:0:0:0:0:1 - - [26/Jan/2017:16:46:01 +0100] "GET /EmailWebApplicationBrowser/js/entrance.js HTTP/1.1" 304 -
0:0:0:0:0:0:0:1 - - [26/Jan/2017:16:46:05 +0100] "GET /EmailWebApplicationBrowser/ HTTP/1.1" 200 1908
0:0:0:0:0:0:0:1 - - [26/Jan/2017:16:46:05 +0100] "GET /EmailWebApplicationBrowser/js/entrance.js HTTP/1.1" 200 4329
0:0:0:0:0:0:0:1 - - [26/Jan/2017:16:46:05 +0100] "GET /EmailWebApplicationBrowser/js/jquery-1.7.1.min.js HTTP/1.1" 200 93868
0:0:0:0:0:0:0:1 - - [26/Jan/2017:16:46:11 +0100] "POST /EmailWebApplicationBrowser/rest/user/login HTTP/1.1" 200 111
0:0:0:0:0:0:0:1 - - [26/Jan/2017:16:46:11 +0100] "POST /EmailWebApplicationBrowser/rest/user/receivedAll HTTP/1.1" 204 -
127.0.0.1 - - [26/Jan/2017:16:49:36 +0100] "GET / HTTP/1.1" 404 951
0:0:0:0:0:0:0:1 - - [26/Jan/2017:16:49:36 +0100] "GET /EmailWebApplicationBrowser/ HTTP/1.1" 304 -
0:0:0:0:0:0:0:1 - - [26/Jan/2017:16:49:36 +0100] "GET /EmailWebApplicationBrowser/js/entrance.js HTTP/1.1" 304 -
0:0:0:0:0:0:0:1 - - [26/Jan/2017:16:49:37 +0100] "GET /EmailWebApplicationBrowser/ HTTP/1.1" 200 1908
0:0:0:0:0:0:0:1 - - [26/Jan/2017:16:49:37 +0100] "GET /EmailWebApplicationBrowser/js/entrance.js HTTP/1.1" 200 4329
0:0:0:0:0:0:0:1 - - [26/Jan/2017:16:49:37 +0100] "GET /EmailWebApplicationBrowser/js/jquery-1.7.1.min.js HTTP/1.1" 200 93868
0:0:0:0:0:0:0:1 - - [26/Jan/2017:16:49:42 +0100] "POST /EmailWebApplicationBrowser/rest/user/login HTTP/1.1" 200 111
0:0:0:0:0:0:0:1 - - [26/Jan/2017:16:49:42 +0100] "POST /EmailWebApplicationBrowser/rest/user/receivedAll HTTP/1.1" 500 3176
127.0.0.1 - - [26/Jan/2017:17:55:55 +0100] "GET / HTTP/1.1" 404 951
0:0:0:0:0:0:0:1 - - [26/Jan/2017:17:55:55 +0100] "GET /EmailWebApplicationBrowser/ HTTP/1.1" 200 1908
0:0:0:0:0:0:0:1 - - [26/Jan/2017:17:55:56 +0100] "GET /EmailWebApplicationBrowser/js/jquery-1.7.1.min.js HTTP/1.1" 200 93868
0:0:0:0:0:0:0:1 - - [26/Jan/2017:17:55:56 +0100] "GET /EmailWebApplicationBrowser/js/entrance.js HTTP/1.1" 200 4329
0:0:0:0:0:0:0:1 - - [26/Jan/2017:17:55:57 +0100] "GET /EmailWebApplicationBrowser/ HTTP/1.1" 304 -
0:0:0:0:0:0:0:1 - - [26/Jan/2017:17:55:58 +0100] "GET /EmailWebApplicationBrowser/js/entrance.js HTTP/1.1" 304 -
0:0:0:0:0:0:0:1 - - [26/Jan/2017:17:56:01 +0100] "POST /EmailWebApplicationBrowser/rest/user/login HTTP/1.1" 200 111
0:0:0:0:0:0:0:1 - - [26/Jan/2017:17:56:01 +0100] "POST /EmailWebApplicationBrowser/rest/user/receivedAll HTTP/1.1" 500 3176
127.0.0.1 - - [26/Jan/2017:17:58:45 +0100] "GET / HTTP/1.1" 404 951
0:0:0:0:0:0:0:1 - - [26/Jan/2017:17:58:45 +0100] "GET /EmailWebApplicationBrowser/ HTTP/1.1" 200 1908
0:0:0:0:0:0:0:1 - - [26/Jan/2017:17:58:45 +0100] "GET /EmailWebApplicationBrowser/js/entrance.js HTTP/1.1" 200 4329
0:0:0:0:0:0:0:1 - - [26/Jan/2017:17:58:45 +0100] "GET /EmailWebApplicationBrowser/js/jquery-1.7.1.min.js HTTP/1.1" 200 93868
0:0:0:0:0:0:0:1 - - [26/Jan/2017:17:58:49 +0100] "POST /EmailWebApplicationBrowser/rest/user/login HTTP/1.1" 200 111
0:0:0:0:0:0:0:1 - - [26/Jan/2017:17:58:50 +0100] "POST /EmailWebApplicationBrowser/rest/user/receivedAll HTTP/1.1" 500 3266
127.0.0.1 - - [26/Jan/2017:18:00:27 +0100] "GET / HTTP/1.1" 404 951
0:0:0:0:0:0:0:1 - - [26/Jan/2017:18:00:30 +0100] "GET /EmailWebApplicationBrowser/ HTTP/1.1" 200 1908
0:0:0:0:0:0:0:1 - - [26/Jan/2017:18:00:30 +0100] "GET /EmailWebApplicationBrowser/js/jquery-1.7.1.min.js HTTP/1.1" 200 93868
0:0:0:0:0:0:0:1 - - [26/Jan/2017:18:00:30 +0100] "GET /EmailWebApplicationBrowser/js/entrance.js HTTP/1.1" 200 4329
0:0:0:0:0:0:0:1 - - [26/Jan/2017:18:00:33 +0100] "POST /EmailWebApplicationBrowser/rest/user/login HTTP/1.1" 200 111
0:0:0:0:0:0:0:1 - - [26/Jan/2017:18:00:33 +0100] "POST /EmailWebApplicationBrowser/rest/user/receivedAll HTTP/1.1" 500 3176
127.0.0.1 - - [26/Jan/2017:18:04:54 +0100] "GET / HTTP/1.1" 404 951
127.0.0.1 - - [26/Jan/2017:18:05:14 +0100] "GET / HTTP/1.1" 404 951
0:0:0:0:0:0:0:1 - - [26/Jan/2017:18:05:51 +0100] "GET /EmailWebApplicationBrowser/ HTTP/1.1" 200 1908
0:0:0:0:0:0:0:1 - - [26/Jan/2017:18:05:52 +0100] "GET /EmailWebApplicationBrowser/js/jquery-1.7.1.min.js HTTP/1.1" 200 93868
0:0:0:0:0:0:0:1 - - [26/Jan/2017:18:05:53 +0100] "GET /EmailWebApplicationBrowser/js/entrance.js HTTP/1.1" 200 4329
0:0:0:0:0:0:0:1 - - [26/Jan/2017:18:06:00 +0100] "POST /EmailWebApplicationBrowser/rest/user/login HTTP/1.1" 200 111
0:0:0:0:0:0:0:1 - - [26/Jan/2017:18:06:00 +0100] "POST /EmailWebApplicationBrowser/rest/user/receivedAll HTTP/1.1" 500 3176
127.0.0.1 - - [26/Jan/2017:18:13:52 +0100] "GET / HTTP/1.1" 404 951
0:0:0:0:0:0:0:1 - - [26/Jan/2017:18:13:57 +0100] "GET /EmailWebApplicationBrowser/ HTTP/1.1" 304 -
0:0:0:0:0:0:0:1 - - [26/Jan/2017:18:13:58 +0100] "GET /EmailWebApplicationBrowser/js/entrance.js HTTP/1.1" 304 -
0:0:0:0:0:0:0:1 - - [26/Jan/2017:18:13:58 +0100] "GET /EmailWebApplicationBrowser/ HTTP/1.1" 200 1908
0:0:0:0:0:0:0:1 - - [26/Jan/2017:18:14:00 +0100] "GET /EmailWebApplicationBrowser/js/entrance.js HTTP/1.1" 200 4329
0:0:0:0:0:0:0:1 - - [26/Jan/2017:18:14:00 +0100] "GET /EmailWebApplicationBrowser/js/jquery-1.7.1.min.js HTTP/1.1" 200 93868
0:0:0:0:0:0:0:1 - - [26/Jan/2017:18:14:05 +0100] "POST /EmailWebApplicationBrowser/rest/user/login HTTP/1.1" 200 111
0:0:0:0:0:0:0:1 - - [26/Jan/2017:18:14:05 +0100] "POST /EmailWebApplicationBrowser/rest/user/receivedAll HTTP/1.1" 500 3176
127.0.0.1 - - [26/Jan/2017:18:55:49 +0100] "GET / HTTP/1.1" 404 951
0:0:0:0:0:0:0:1 - - [26/Jan/2017:18:55:49 +0100] "GET /EmailWebApplicationBrowser/ HTTP/1.1" 304 -
0:0:0:0:0:0:0:1 - - [26/Jan/2017:18:55:49 +0100] "GET /EmailWebApplicationBrowser/js/jquery-1.7.1.min.js HTTP/1.1" 304 -
0:0:0:0:0:0:0:1 - - [26/Jan/2017:18:55:49 +0100] "GET /EmailWebApplicationBrowser/js/entrance.js HTTP/1.1" 304 -
0:0:0:0:0:0:0:1 - - [26/Jan/2017:18:56:08 +0100] "GET /EmailWebApplicationBrowser/ HTTP/1.1" 200 1908
0:0:0:0:0:0:0:1 - - [26/Jan/2017:18:56:09 +0100] "GET /EmailWebApplicationBrowser/js/jquery-1.7.1.min.js HTTP/1.1" 200 93868
0:0:0:0:0:0:0:1 - - [26/Jan/2017:18:56:09 +0100] "GET /EmailWebApplicationBrowser/js/entrance.js HTTP/1.1" 200 4329
0:0:0:0:0:0:0:1 - - [26/Jan/2017:18:56:15 +0100] "POST /EmailWebApplicationBrowser/rest/user/login HTTP/1.1" 200 111
0:0:0:0:0:0:0:1 - - [26/Jan/2017:18:56:15 +0100] "POST /EmailWebApplicationBrowser/rest/user/receivedAll HTTP/1.1" 500 3176
127.0.0.1 - - [26/Jan/2017:19:20:00 +0100] "GET / HTTP/1.1" 404 951
0:0:0:0:0:0:0:1 - - [26/Jan/2017:19:20:03 +0100] "GET /EmailWebApplicationBrowser/ HTTP/1.1" 200 1908
0:0:0:0:0:0:0:1 - - [26/Jan/2017:19:20:03 +0100] "GET /EmailWebApplicationBrowser/js/jquery-1.7.1.min.js HTTP/1.1" 200 93868
0:0:0:0:0:0:0:1 - - [26/Jan/2017:19:20:03 +0100] "GET /EmailWebApplicationBrowser/js/entrance.js HTTP/1.1" 200 4329
0:0:0:0:0:0:0:1 - - [26/Jan/2017:19:20:05 +0100] "GET /EmailWebApplicationBrowser/ HTTP/1.1" 304 -
0:0:0:0:0:0:0:1 - - [26/Jan/2017:19:20:05 +0100] "GET /EmailWebApplicationBrowser/js/entrance.js HTTP/1.1" 304 -
0:0:0:0:0:0:0:1 - - [26/Jan/2017:19:20:05 +0100] "GET /favicon.ico HTTP/1.1" 404 973
0:0:0:0:0:0:0:1 - - [26/Jan/2017:19:20:11 +0100] "POST /EmailWebApplicationBrowser/rest/user/login HTTP/1.1" 200 111
0:0:0:0:0:0:0:1 - - [26/Jan/2017:19:20:11 +0100] "POST /EmailWebApplicationBrowser/rest/user/receivedAll HTTP/1.1" 500 3216
127.0.0.1 - - [26/Jan/2017:19:40:28 +0100] "GET / HTTP/1.1" 404 951
0:0:0:0:0:0:0:1 - - [26/Jan/2017:19:40:28 +0100] "GET /EmailWebApplicationBrowser/ HTTP/1.1" 304 -
0:0:0:0:0:0:0:1 - - [26/Jan/2017:19:40:29 +0100] "GET /EmailWebApplicationBrowser/js/entrance.js HTTP/1.1" 304 -
0:0:0:0:0:0:0:1 - - [26/Jan/2017:19:40:32 +0100] "GET /EmailWebApplicationBrowser/ HTTP/1.1" 304 -
0:0:0:0:0:0:0:1 - - [26/Jan/2017:19:40:32 +0100] "GET /EmailWebApplicationBrowser/js/entrance.js HTTP/1.1" 304 -
0:0:0:0:0:0:0:1 - - [26/Jan/2017:19:40:35 +0100] "POST /EmailWebApplicationBrowser/rest/user/login HTTP/1.1" 200 111
0:0:0:0:0:0:0:1 - - [26/Jan/2017:19:40:35 +0100] "POST /EmailWebApplicationBrowser/rest/user/receivedAll HTTP/1.1" 204 -
0:0:0:0:0:0:0:1 - - [26/Jan/2017:19:41:24 +0100] "GET /EmailWebApplicationBrowser/ HTTP/1.1" 304 -
127.0.0.1 - - [26/Jan/2017:19:41:24 +0100] "GET / HTTP/1.1" 404 951
0:0:0:0:0:0:0:1 - - [26/Jan/2017:19:41:27 +0100] "POST /EmailWebApplicationBrowser/rest/user/login HTTP/1.1" 200 111
0:0:0:0:0:0:0:1 - - [26/Jan/2017:19:41:27 +0100] "POST /EmailWebApplicationBrowser/rest/user/receivedAll HTTP/1.1" 500 3216
127.0.0.1 - - [26/Jan/2017:19:49:26 +0100] "GET / HTTP/1.1" 404 951
0:0:0:0:0:0:0:1 - - [26/Jan/2017:19:49:28 +0100] "GET /EmailWebApplicationBrowser/ HTTP/1.1" 304 -
0:0:0:0:0:0:0:1 - - [26/Jan/2017:19:49:31 +0100] "POST /EmailWebApplicationBrowser/rest/user/login HTTP/1.1" 200 111
0:0:0:0:0:0:0:1 - - [26/Jan/2017:19:49:31 +0100] "POST /EmailWebApplicationBrowser/rest/user/receivedAll HTTP/1.1" 500 3176
127.0.0.1 - - [26/Jan/2017:20:08:31 +0100] "GET / HTTP/1.1" 404 951
0:0:0:0:0:0:0:1 - - [26/Jan/2017:20:08:32 +0100] "GET /EmailWebApplicationBrowser/ HTTP/1.1" 304 -
0:0:0:0:0:0:0:1 - - [26/Jan/2017:20:08:32 +0100] "GET /EmailWebApplicationBrowser/js/entrance.js HTTP/1.1" 304 -
127.0.0.1 - - [26/Jan/2017:20:08:51 +0100] "GET / HTTP/1.1" 404 951
0:0:0:0:0:0:0:1 - - [26/Jan/2017:20:08:51 +0100] "GET /EmailWebApplicationBrowser/ HTTP/1.1" 304 -
0:0:0:0:0:0:0:1 - - [26/Jan/2017:20:08:51 +0100] "GET /EmailWebApplicationBrowser/js/entrance.js HTTP/1.1" 304 -
0:0:0:0:0:0:0:1 - - [26/Jan/2017:20:08:55 +0100] "POST /EmailWebApplicationBrowser/rest/user/login HTTP/1.1" 200 111
0:0:0:0:0:0:0:1 - - [26/Jan/2017:20:08:55 +0100] "POST /EmailWebApplicationBrowser/rest/user/receivedAll HTTP/1.1" 204 -
127.0.0.1 - - [26/Jan/2017:20:11:31 +0100] "GET / HTTP/1.1" 404 951
0:0:0:0:0:0:0:1 - - [26/Jan/2017:20:11:33 +0100] "GET /EmailWebApplicationBrowser/ HTTP/1.1" 304 -
0:0:0:0:0:0:0:1 - - [26/Jan/2017:20:11:37 +0100] "POST /EmailWebApplicationBrowser/rest/user/login HTTP/1.1" 200 111
0:0:0:0:0:0:0:1 - - [26/Jan/2017:20:11:37 +0100] "POST /EmailWebApplicationBrowser/rest/user/receivedAll HTTP/1.1" 204 -
127.0.0.1 - - [26/Jan/2017:20:46:36 +0100] "GET / HTTP/1.1" 404 951
0:0:0:0:0:0:0:1 - - [26/Jan/2017:20:46:36 +0100] "GET /EmailWebApplicationBrowser/ HTTP/1.1" 304 -
0:0:0:0:0:0:0:1 - - [26/Jan/2017:20:46:36 +0100] "GET /EmailWebApplicationBrowser/js/entrance.js HTTP/1.1" 304 -
0:0:0:0:0:0:0:1 - - [26/Jan/2017:20:46:40 +0100] "GET /EmailWebApplicationBrowser/ HTTP/1.1" 304 -
0:0:0:0:0:0:0:1 - - [26/Jan/2017:20:46:40 +0100] "GET /EmailWebApplicationBrowser/js/entrance.js HTTP/1.1" 304 -
0:0:0:0:0:0:0:1 - - [26/Jan/2017:20:46:43 +0100] "POST /EmailWebApplicationBrowser/rest/user/login HTTP/1.1" 200 111
0:0:0:0:0:0:0:1 - - [26/Jan/2017:20:46:43 +0100] "POST /EmailWebApplicationBrowser/rest/user/receivedAll HTTP/1.1" 204 -
127.0.0.1 - - [26/Jan/2017:20:47:47 +0100] "GET / HTTP/1.1" 404 951
0:0:0:0:0:0:0:1 - - [26/Jan/2017:20:47:47 +0100] "GET /EmailWebApplicationBrowser/ HTTP/1.1" 304 -
0:0:0:0:0:0:0:1 - - [26/Jan/2017:20:47:50 +0100] "POST /EmailWebApplicationBrowser/rest/user/login HTTP/1.1" 200 111
0:0:0:0:0:0:0:1 - - [26/Jan/2017:20:47:50 +0100] "POST /EmailWebApplicationBrowser/rest/user/receivedAll HTTP/1.1" 204 -
127.0.0.1 - - [26/Jan/2017:22:13:24 +0100] "GET / HTTP/1.1" 404 951
0:0:0:0:0:0:0:1 - - [26/Jan/2017:22:13:25 +0100] "GET /EmailWebApplicationBrowser/ HTTP/1.1" 304 -
0:0:0:0:0:0:0:1 - - [26/Jan/2017:22:13:25 +0100] "GET /EmailWebApplicationBrowser/js/entrance.js HTTP/1.1" 304 -
0:0:0:0:0:0:0:1 - - [26/Jan/2017:22:13:30 +0100] "GET /EmailWebApplicationBrowser/ HTTP/1.1" 304 -
0:0:0:0:0:0:0:1 - - [26/Jan/2017:22:13:30 +0100] "GET /EmailWebApplicationBrowser/js/entrance.js HTTP/1.1" 304 -
0:0:0:0:0:0:0:1 - - [26/Jan/2017:22:13:34 +0100] "POST /EmailWebApplicationBrowser/rest/user/login HTTP/1.1" 200 111
0:0:0:0:0:0:0:1 - - [26/Jan/2017:22:13:34 +0100] "POST /EmailWebApplicationBrowser/rest/user/receivedAll HTTP/1.1" 204 -
127.0.0.1 - - [26/Jan/2017:22:21:08 +0100] "GET / HTTP/1.1" 404 951
0:0:0:0:0:0:0:1 - - [26/Jan/2017:22:21:12 +0100] "GET /EmailWebApplicationBrowser/ HTTP/1.1" 304 -
0:0:0:0:0:0:0:1 - - [26/Jan/2017:22:21:14 +0100] "POST /EmailWebApplicationBrowser/rest/user/login HTTP/1.1" 200 111
0:0:0:0:0:0:0:1 - - [26/Jan/2017:22:21:14 +0100] "POST /EmailWebApplicationBrowser/rest/user/receivedAll HTTP/1.1" 204 -
127.0.0.1 - - [26/Jan/2017:22:21:47 +0100] "GET / HTTP/1.1" 404 951
0:0:0:0:0:0:0:1 - - [26/Jan/2017:22:21:52 +0100] "GET /EmailWebApplicationBrowser/ HTTP/1.1" 304 -
0:0:0:0:0:0:0:1 - - [26/Jan/2017:22:21:56 +0100] "POST /EmailWebApplicationBrowser/rest/user/login HTTP/1.1" 200 111
0:0:0:0:0:0:0:1 - - [26/Jan/2017:22:21:56 +0100] "POST /EmailWebApplicationBrowser/rest/user/receivedAll HTTP/1.1" 204 -
127.0.0.1 - - [26/Jan/2017:22:27:16 +0100] "GET / HTTP/1.1" 404 951
127.0.0.1 - - [26/Jan/2017:22:27:27 +0100] "GET / HTTP/1.1" 404 951
0:0:0:0:0:0:0:1 - - [26/Jan/2017:22:27:29 +0100] "GET /EmailWebApplicationBrowser/ HTTP/1.1" 304 -
0:0:0:0:0:0:0:1 - - [26/Jan/2017:22:27:32 +0100] "POST /EmailWebApplicationBrowser/rest/user/login HTTP/1.1" 200 111
0:0:0:0:0:0:0:1 - - [26/Jan/2017:22:27:32 +0100] "POST /EmailWebApplicationBrowser/rest/user/receivedAll HTTP/1.1" 204 -
127.0.0.1 - - [26/Jan/2017:22:37:06 +0100] "GET / HTTP/1.1" 404 951
0:0:0:0:0:0:0:1 - - [26/Jan/2017:22:37:06 +0100] "GET /EmailWebApplicationBrowser/ HTTP/1.1" 304 -
0:0:0:0:0:0:0:1 - - [26/Jan/2017:22:37:10 +0100] "POST /EmailWebApplicationBrowser/rest/user/login HTTP/1.1" 200 111
0:0:0:0:0:0:0:1 - - [26/Jan/2017:22:37:11 +0100] "POST /EmailWebApplicationBrowser/rest/user/receivedAll HTTP/1.1" 204 -
127.0.0.1 - - [26/Jan/2017:22:38:37 +0100] "GET / HTTP/1.1" 404 951
0:0:0:0:0:0:0:1 - - [26/Jan/2017:22:38:44 +0100] "GET /EmailWebApplicationBrowser/ HTTP/1.1" 304 -
0:0:0:0:0:0:0:1 - - [26/Jan/2017:22:38:47 +0100] "POST /EmailWebApplicationBrowser/rest/user/login HTTP/1.1" 200 111
0:0:0:0:0:0:0:1 - - [26/Jan/2017:22:38:47 +0100] "POST /EmailWebApplicationBrowser/rest/user/receivedAll HTTP/1.1" 204 -
127.0.0.1 - - [26/Jan/2017:23:35:57 +0100] "GET / HTTP/1.1" 404 951
0:0:0:0:0:0:0:1 - - [26/Jan/2017:23:35:57 +0100] "GET /EmailWebApplicationBrowser/ HTTP/1.1" 304 -
0:0:0:0:0:0:0:1 - - [26/Jan/2017:23:35:57 +0100] "GET /EmailWebApplicationBrowser/js/entrance.js HTTP/1.1" 304 -
0:0:0:0:0:0:0:1 - - [26/Jan/2017:23:35:57 +0100] "GET /EmailWebApplicationBrowser/ HTTP/1.1" 304 -
0:0:0:0:0:0:0:1 - - [26/Jan/2017:23:35:57 +0100] "GET /EmailWebApplicationBrowser/js/entrance.js HTTP/1.1" 304 -
0:0:0:0:0:0:0:1 - - [26/Jan/2017:23:36:00 +0100] "POST /EmailWebApplicationBrowser/rest/user/login HTTP/1.1" 200 111
0:0:0:0:0:0:0:1 - - [26/Jan/2017:23:36:00 +0100] "POST /EmailWebApplicationBrowser/rest/user/receivedAll HTTP/1.1" 204 -
127.0.0.1 - - [26/Jan/2017:23:36:59 +0100] "GET / HTTP/1.1" 404 951
0:0:0:0:0:0:0:1 - - [26/Jan/2017:23:36:59 +0100] "GET /EmailWebApplicationBrowser/ HTTP/1.1" 304 -
0:0:0:0:0:0:0:1 - - [26/Jan/2017:23:37:03 +0100] "POST /EmailWebApplicationBrowser/rest/user/login HTTP/1.1" 200 111
0:0:0:0:0:0:0:1 - - [26/Jan/2017:23:37:03 +0100] "POST /EmailWebApplicationBrowser/rest/user/receivedAll HTTP/1.1" 204 -
